2146 8014 262
1542 6010 238
2777 2218 209
7056 7467 239
9998 8257 260
7829 9366 260
9791 687 262
1746 6120 238
5834 6359 262
1676 5544 238
384 4308 238
3020 3428 199
1224 5550 238
8635 6633 257
5455 9669 262
3096 9998 262
9630 9037 260
8086 3406 262
868 7367 262
5043 4144 215
1698 4535 238
9171 4853 262
2949 5767 238
1100 5997 238
1758 9176 262
4969 6022 236
6974 1855 262
6882 162 262
7677 1844 262
1523 451 182
8969 1619 262
3624 2838 217
5068 5340 192
4314 2202 238
2406 6717 262
835 7243 262
4665 4618 184
5998 3711 238
6676 9974 260
7626 5788 262
3655 3057 199
4333 1428 238
1317 494 182
7669 2127 262
4712 8960 262
2170 8068 262
5598 8736 262
63 8755 262
7152 9038 252
9687 5089 262
676 9489 262
3124 4304 238
7624 3228 262
5610 6858 262
9663 8272 260
7187 7899 239
9465 3736 262
1867 6873 262
3290 1253 217
8940 9617 260
5644 8966 262
2388 7774 262
2000 7075 262
3025 2312 217
5056 6902 262
5375 2183 238
3648 8903 262
1561 6867 262
9443 6931 260
8763 2682 262
7770 7240 239
7560 1404 262
8695 1568 262
9879 8247 260
9824 1927 262
7704 474 262
207 10 125
7269 2056 262
5493 9278 262
5332 5435 192
6414 6586 213
3112 241 217
9888 9715 242
8950 424 262
1950 8658 262
2902 5538 238
9146 5091 262
9648 6069 262
7046 3373 262
9349 3314 262
2635 9081 262
7056 4383 262
3619 8817 262
1489 1187 177
1424 3174 217
7657 5342 262
1344 2173 180
2501 4787 238
856 1960 182
705 2210 182
5053 8029 262
3213 6198 262
3089 3157 186
9501 2424 262
1627 8163 262
7082 2974 262
7983 5406 262
8726 7796 252
2525 1517 209
1388 9573 262
7222 8159 252
3350 406 217
6200 6420 200
6985 2255 262
9930 1915 262
2443 5831 238
5427 8344 262
7669 3243 262
150 7409 262
8547 4202 262
599 3174 217
4184 1696 238
289 1435 182
8478 125 262
2576 7732 262
8427 9474 260
1161 9820 262
5871 5495 236
794 9745 262
3946 5995 236
6076 79 238
266 8313 262
9397 8423 260
9762 5460 262
1370 2396 183
7351 3055 262
593 2971 217
5812 7052 262
3188 6260 262
1309 6110 238
3954 4745 215
2192 6652 262
1327 6130 238
2567 1589 209
9820 8490 260
2378 1211 183
7745 6377 257
7410 7646 239
1015 9359 262
9001 3430 262
7826 4266 262
9452 2107 262
5836 5204 236
2370 7604 262
797 9901 262
2182 2283 183
9349 3984 262
4656 5178 210
9292 4452 262
3907 1364 238
9488 5457 262
5647 242 238
6958 3325 262
2630 9096 262
4461 6931 262
8156 4820 262
9443 5390 262
5095 7202 262
5995 4855 236
4678 3551 238
7358 8201 252
350 3944 238
4350 7725 262
6816 5901 262
2226 2007 183
2694 2568 191
8507 9724 260
7356 8676 252
3622 9119 262
8619 8364 203
4346 9878 262
2736 8866 262
1265 8893 262
4908 6984 262
2915 663 209
4116 4766 215
7101 4093 262
2729 6360 262
5825 7029 262
98 7867 262
8791 6207 257
9557 5605 262
3329 3198 168
1221 9782 262
9085 3282 262
5796 3519 238
3043 9374 262
5450 1861 238
5358 8427 262
9134 5265 262
2536 4504 238
7809 663 262
8829 7612 252
858 3777 238
9185 9082 198
2043 7864 262
7102 336 262
6659 8911 257
3958 3868 189
4189 3547 238
3575 6698 262
2486 7411 262
508 5167 238
1132 3584 217
8416 5147 262
6689 2096 262
8413 7551 252
543 1230 182
7075 6875 257
1510 4406 238
7044 9426 260
5936 1959 238
3771 4509 215
4037 1241 238
9693 9320 198
8154 1336 262
3817 8797 262
7765 2525 262
6537 5627 262
7483 5687 262
8634 882 262
5179 8203 262
2183 2078 170
5251 5157 179
4337 9694 262
4528 2282 238
4172 2640 238
8099 7068 252
5843 1035 238
5102 9049 262
2604 3304 217
6543 5024 262
8997 61 262
1507 2656 209
4573 7303 262
6268 9263 260
48 2964 217
8157 5284 262
5627 3707 238
9538 1987 262
