1 10 20
100 200 125
201 210 89
900 1000 174
875746 323688 525
166339 152507 383
27910 373299 443
705606 776802 468
91193 78944 333
649814 362305 509
719048 236320 509
654273 429981 509
294427 687308 509
529840 592725 452
574334 175 470
179475 861985 525
294131 235256 407
334485 531768 470
591580 153792 470
166104 696838 509
546701 508702 470
43502 98280 351
236869 31419 443
161003 68901 383
560949 788257 509
345313 306349 384
754710 585383 509
4654 232164 443
759037 110759 509
115548 707824 509
49261 9887 324
320437 573957 470
846951 546602 525
622219 578977 447
189208 998368 525
225733 975059 525
219349 816727 509
554063 373145 470
14064 298787 443
916429 16628 525
45025 27446 324
811644 88159 509
651302 550353 509
542866 202227 470
722765 715100 411
659088 265599 509
498974 594918 470
262294 645285 509
757408 785890 468
277945 506430 449
511879 180436 449
981354 34276 525
490302 539688 470
495163 133123 449
943981 29030 525
47360 470476 449
931221 16189 525
683721 325278 509
798262 369486 509
546199 44612 470
669883 170452 509
48891 273489 443
242578 263596 407
654639 346125 509
321695 392119 441
36340 198334 383
943779 390672 525
581408 421775 470
656422 358539 509
784311 835112 468
215768 618373 470
488064 452870 444
644751 729459 504
302159 684162 509
622549 726391 509
414236 936595 525
853267 855211 419
273905 710609 509
394040 888196 525
43053 990320 525
429584 169163 449
94865 498582 449
309680 332243 384
827008 540702 509
682338 552301 509
506200 768271 509
256844 924884 525
208026 864572 525
264598 612448 470
833661 15851 509
26341 802746 509
288074 118640 443
734189 516493 509
320825 965910 525
238479 543326 470
738108 210259 509
114784 451094 449
306375 785745 509
897693 925696 476
113297 948357 525
671417 201847 509
566994 518258 452
46794 644324 509
745094 66467 509
308812 515824 470
808791 873633 525
805131 888625 525
912447 945728 507
735578 34140 509
419839 881125 525
282716 779855 509
669392 643805 442
536755 408550 470
612152 281004 470
541561 999278 525
457510 670877 509
862145 758336 525
314805 277865 389
378227 649589 509
668861 132849 509
626935 494958 509
528335 302297 470
124522 392805 443
854663 23594 525
602393 911165 525
290131 512646 470
481674 284170 449
212535 621895 470
882396 222415 525
871026 221029 525
322142 231732 407
922482 169142 525
138216 128610 344
490326 246826 449
579156 741190 509
847359 739429 525
79464 441445 449
665517 636442 442
721451 242818 509
689654 699004 442
450754 370595 449
231816 667611 509
471821 865216 525
204408 111996 383
210905 971159 525
134269 360536 443
990507 419927 525
407275 686227 509
450839 513777 470
517318 315437 470
766663 162503 509
12770 795204 509
384281 434099 449
571484 627430 509
812875 997916 525
394428 993938 525
902167 149392 525
154157 148749 370
50948 351148 443
453630 98987 449
497404 14503 449
270433 249477 407
942609 100912 525
767766 557256 509
444973 377902 449
270045 641155 509
134101 200485 383
411257 466115 444
489419 537458 470
32514 91164 351
353624 3866 443
940749 277899 525
405947 317424 441
557509 498814 470
127240 966871 525
182282 507216 449
844708 675076 525
766939 440829 509
368944 921441 525
472416 664530 509
449960 480363 444
416453 201838 449
106506 493989 449
30382 513377 470
695508 338590 509
769121 151194 509
5037 620226 470
632598 115695 509
725908 811193 468
677904 40663 509
136873 734116 509
977659 75851 525
479484 22160 449
838885 651021 525
311653 504366 449
825488 533813 509
884110 846197 432
132074 450048 449
394504 184697 443
150954 897235 525
443968 961391 525
263759 420163 449
24339 851772 525
583839 710481 509
892309 279548 525
862063 336326 525
439168 934364 525
381069 958688 525
482109 107702 449
804951 888484 525
137900 970199 525
52408 614745 470
904597 965285 507
150424 917266 525
99604 327336 443
882635 316848 525
171865 982251 525
175230 790939 509
626983 907275 525
508555 290552 449
113565 933811 525
79082 339431 443
253307 406919 441
293371 353187 441
86898 935756 525
303462 408321 441
572242 786262 509
735732 584669 509
158301 638454 509
525972 771575 509
492322 953754 525
923798 596052 525
349253 273147 441
802216 288968 509
174909 993851 525
225544 123234 386
36171 622845 470
311526 271498 389
483709 238203 449
997970 262123 525
57741 250050 443
107654 381877 443
352432 734860 509
5035 342022 443
721826 758716 424
533201 598676 452
462329 900551 525
73682 710231 509
338251 216218 443
486982 847859 525
811719 309485 509
324578 722447 509
720783 131800 509
526436 984517 525
